^C:\EKRONOT\CHESS PROJECT\AATEAM\CHESS_PROJECT_AVICHAI_INBAR\X64\DEBUG\BISHOP.OBJ|C:\EKRONOT\CHESS PROJECT\AATEAM\CHESS_PROJECT_AVICHAI_INBAR\X64\DEBUG\BOARD.OBJ|C:\EKRONOT\CHESS PROJECT\AATEAM\CHESS_PROJECT_AVICHAI_INBAR\X64\DEBUG\GAMEBASE.OBJ|C:\EKRONOT\CHESS PROJECT\AATEAM\CHESS_PROJECT_AVICHAI_INBAR\X64\DEBUG\KING.OBJ|C:\EKRONOT\CHESS PROJECT\AATEAM\CHESS_PROJECT_AVICHAI_INBAR\X64\DEBUG\KNIGHT.OBJ|C:\EKRONOT\CHESS PROJECT\AATEAM\CHESS_PROJECT_AVICHAI_INBAR\X64\DEBUG\MAIN.OBJ|C:\EKRONOT\CHESS PROJECT\AATEAM\CHESS_PROJECT_AVICHAI_INBAR\X64\DEBUG\PAWN.OBJ|C:\EKRONOT\CHESS PROJECT\AATEAM\CHESS_PROJECT_AVICHAI_INBAR\X64\DEBUG\PIECE.OBJ|C:\EKRONOT\CHESS PROJECT\AATEAM\CHESS_PROJECT_AVICHAI_INBAR\X64\DEBUG\POINT.OBJ|C:\EKRONOT\CHESS PROJECT\AATEAM\CHESS_PROJECT_AVICHAI_INBAR\X64\DEBUG\QUEEN.OBJ|C:\EKRONOT\CHESS PROJECT\AATEAM\CHESS_PROJECT_AVICHAI_INBAR\X64\DEBUG\ROOK.OBJ|C:\EKRONOT\CHESS PROJECT\AATEAM\CHESS_PROJECT_AVICHAI_INBAR\X64\DEBUG\SOURCE.OBJ|C:\EKRONOT\CHESS PROJECT\AATEAM\CHESS_PROJECT_AVICHAI_INBAR\X64\DEBUG\STDAFX.OBJ
C:\WINDOWS\SYSTEM32\C_1252.NLS
C:\PROGRAM FILES (X86)\WINDOWS KITS\10\LIB\10.0.22621.0\UM\X64\KERNEL32.LIB
C:\PROGRAM FILES (X86)\WINDOWS KITS\10\LIB\10.0.22621.0\UM\X64\USER32.LIB
C:\PROGRAM FILES (X86)\WINDOWS KITS\10\LIB\10.0.22621.0\UM\X64\GDI32.LIB
C:\PROGRAM FILES (X86)\WINDOWS KITS\10\LIB\10.0.22621.0\UM\X64\WINSPOOL.LIB
C:\PROGRAM FILES (X86)\WINDOWS KITS\10\LIB\10.0.22621.0\UM\X64\COMDLG32.LIB
C:\PROGRAM FILES (X86)\WINDOWS KITS\10\LIB\10.0.22621.0\UM\X64\ADVAPI32.LIB
C:\PROGRAM FILES (X86)\WINDOWS KITS\10\LIB\10.0.22621.0\UM\X64\SHELL32.LIB
C:\PROGRAM FILES (X86)\WINDOWS KITS\10\LIB\10.0.22621.0\UM\X64\OLE32.LIB
C:\PROGRAM FILES (X86)\WINDOWS KITS\10\LIB\10.0.22621.0\UM\X64\OLEAUT32.LIB
C:\PROGRAM FILES (X86)\WINDOWS KITS\10\LIB\10.0.22621.0\UM\X64\UUID.LIB
C:\PROGRAM FILES (X86)\WINDOWS KITS\10\LIB\10.0.22621.0\UM\X64\ODBC32.LIB
C:\PROGRAM FILES (X86)\WINDOWS KITS\10\LIB\10.0.22621.0\UM\X64\ODBCCP32.LIB
C:\EKRONOT\CHESS PROJECT\AATEAM\CHESS_PROJECT_AVICHAI_INBAR\X64\DEBUG\BISHOP.OBJ
C:\EKRONOT\CHESS PROJECT\AATEAM\CHESS_PROJECT_AVICHAI_INBAR\X64\DEBUG\BOARD.OBJ
C:\EKRONOT\CHESS PROJECT\AATEAM\CHESS_PROJECT_AVICHAI_INBAR\X64\DEBUG\GAMEBASE.OBJ
C:\EKRONOT\CHESS PROJECT\AATEAM\CHESS_PROJECT_AVICHAI_INBAR\X64\DEBUG\KING.OBJ
C:\EKRONOT\CHESS PROJECT\AATEAM\CHESS_PROJECT_AVICHAI_INBAR\X64\DEBUG\KNIGHT.OBJ
C:\EKRONOT\CHESS PROJECT\AATEAM\CHESS_PROJECT_AVICHAI_INBAR\X64\DEBUG\MAIN.OBJ
C:\EKRONOT\CHESS PROJECT\AATEAM\CHESS_PROJECT_AVICHAI_INBAR\X64\DEBUG\PAWN.OBJ
C:\EKRONOT\CHESS PROJECT\AATEAM\CHESS_PROJECT_AVICHAI_INBAR\X64\DEBUG\PIECE.OBJ
C:\EKRONOT\CHESS PROJECT\AATEAM\CHESS_PROJECT_AVICHAI_INBAR\X64\DEBUG\POINT.OBJ
C:\EKRONOT\CHESS PROJECT\AATEAM\CHESS_PROJECT_AVICHAI_INBAR\X64\DEBUG\QUEEN.OBJ
C:\EKRONOT\CHESS PROJECT\AATEAM\CHESS_PROJECT_AVICHAI_INBAR\X64\DEBUG\ROOK.OBJ
C:\EKRONOT\CHESS PROJECT\AATEAM\CHESS_PROJECT_AVICHAI_INBAR\X64\DEBUG\SOURCE.OBJ
C:\EKRONOT\CHESS PROJECT\AATEAM\CHESS_PROJECT_AVICHAI_INBAR\X64\DEBUG\STDAFX.OBJ
C:\WINDOWS\SYSTEM32\TZRES.DLL
C:\WINDOWS\GLOBALIZATION\SORTING\SORTDEFAULT.NLS
C:\PROGRAM FILES\MICROSOFT VISUAL STUDIO\2022\COMMUNITY\VC\TOOLS\MSVC\14.37.32822\LIB\X64\MSVCPRTD.LIB
C:\PROGRAM FILES\MICROSOFT VISUAL STUDIO\2022\COMMUNITY\VC\TOOLS\MSVC\14.37.32822\LIB\X64\MSVCRTD.LIB
C:\PROGRAM FILES\MICROSOFT VISUAL STUDIO\2022\COMMUNITY\VC\TOOLS\MSVC\14.37.32822\LIB\X64\OLDNAMES.LIB
C:\PROGRAM FILES\MICROSOFT VISUAL STUDIO\2022\COMMUNITY\VC\TOOLS\MSVC\14.37.32822\LIB\X64\VCRUNTIMED.LIB
C:\PROGRAM FILES (X86)\WINDOWS KITS\10\LIB\10.0.22621.0\UCRT\X64\UCRTD.LIB
C:\EKRONOT\CHESS PROJECT\AATEAM\CHESS_PROJECT_AVICHAI_INBAR\X64\DEBUG\VC143.PDB
